<svg xmlns="http://www.w3.org/2000/svg" width="448.228" height="819.342" viewBox="0 0 448.228 819.342">
  <g id="Component_9_1" data-name="Component 9 – 1" transform="translate(0)">
    <rect id="Rectangle_9" data-name="Rectangle 9" width="414" height="763" transform="translate(13.803 18.76)" fill="#fff"/>
    <g id="leaf" transform="matrix(0.259, 0.966, -0.966, 0.259, 410.103, 0)" opacity="0.05" style="mix-blend-mode: multiply;isolation: isolate">
      <path id="Path_459" data-name="Path 459" d="M107.749,195.978s17.313-42.356-56.888-70.806C10.54,109.717-20.427,70.105,16.548,8.915,19.61,36.266,32.741,96.572,89.2,110.333c0,0-52.55-19.65-57.192-108.6,27-3.791,90.33-6.339,109.132,48.618C165.969,122.965,107.749,195.978,107.749,195.978Z" transform="translate(0 0)" fill="#3a7f0d"/>
      <path id="Path_460" data-name="Path 460" d="M32.034,0a167.647,167.647,0,0,1,104.79,140.449,213.885,213.885,0,0,1-29.075,53.422s17.313-42.356-56.889-70.806C10.54,107.61-20.427,68,16.548,6.807,19.61,34.159,32.741,94.465,89.2,108.226,89.2,108.226,36.8,88.625,32.034,0Z" transform="translate(0 2.107)" fill="#49a010"/>
      <circle id="Ellipse_6" data-name="Ellipse 6" cx="5.359" cy="5.359" r="5.359" transform="translate(5.469 123.76)" fill="#3a7f0d"/>
      <g id="Group_60" data-name="Group 60" transform="translate(14.656 130.65)">
        <ellipse id="Ellipse_7" data-name="Ellipse 7" cx="3.828" cy="3.828" rx="3.828" ry="3.828" transform="translate(9.186 0)" fill="#49a010"/>
        <ellipse id="Ellipse_8" data-name="Ellipse 8" cx="9.569" cy="9.569" rx="9.569" ry="9.569" transform="translate(0 30.621)" fill="#49a010"/>
        <ellipse id="Ellipse_9" data-name="Ellipse 9" cx="3.062" cy="3.062" rx="3.062" ry="3.062" transform="translate(35.98 15.311)" fill="#49a010"/>
        <ellipse id="Ellipse_10" data-name="Ellipse 10" cx="8.804" cy="8.804" rx="8.804" ry="8.804" transform="translate(55.887 26.794)" fill="#49a010"/>
      </g>
    </g>
    <g id="leaf-2" data-name="leaf" transform="translate(71.785 568.158) rotate(20)" opacity="0.08" style="mix-blend-mode: multiply;isolation: isolate">
      <path id="Path_459-2" data-name="Path 459" d="M178,0s18.542,45.362-60.926,75.831C73.894,92.383,40.728,134.806,80.328,200.339c3.279-29.292,17.342-93.878,77.809-108.616,0,0-56.279,21.044-61.25,116.3,28.918,4.06,96.741,6.788,116.877-52.068C240.353,78.2,178,0,178,0Z" transform="translate(-62.605 0)" fill="#3a7f0d"/>
      <path id="Path_460-2" data-name="Path 460" d="M96.912,207.63A179.544,179.544,0,0,0,209.139,57.214,229.064,229.064,0,0,0,178,0s18.542,45.362-60.926,75.831C73.894,92.383,40.728,134.806,80.328,200.339c3.279-29.292,17.342-93.878,77.809-108.616C158.133,91.724,102.022,112.715,96.912,207.63Z" transform="translate(-62.605 0)" fill="#49a010"/>
      <ellipse id="Ellipse_6-2" data-name="Ellipse 6" cx="5.739" cy="5.739" rx="5.739" ry="5.739" transform="translate(5.857 65.865)" fill="#3a7f0d"/>
      <g id="Group_60-2" data-name="Group 60" transform="translate(15.696 16.673)">
        <ellipse id="Ellipse_7-2" data-name="Ellipse 7" cx="4.099" cy="4.099" rx="4.099" ry="4.099" transform="translate(9.838 45.092)" fill="#49a010"/>
        <ellipse id="Ellipse_8-2" data-name="Ellipse 8" cx="10.248" cy="10.248" rx="10.248" ry="10.248" transform="translate(0)" fill="#49a010"/>
        <ellipse id="Ellipse_9-2" data-name="Ellipse 9" cx="3.279" cy="3.279" rx="3.279" ry="3.279" transform="translate(38.533 30.335)" fill="#49a010"/>
        <ellipse id="Ellipse_10-2" data-name="Ellipse 10" cx="9.428" cy="9.428" rx="9.428" ry="9.428" transform="translate(59.853 5.739)" fill="#49a010"/>
      </g>
    </g>
  </g>
</svg>
